{
    "ee8efb02-eeee-4775-b842-228c4b0b98fd": {
        "id": "ee8efb02-eeee-4775-b842-228c4b0b98fd",
        "name": "Google Search",
        "keyword": "g",
        "cmd": "https://google.com/search?q=%s",
        "icon": "/usr/share/ulauncher/media/google-search-icon.png",
        "is_default_search": true,
        "run_without_argument": false,
        "added": 1714660924.1898634
    },
    "f30c57b6-9d15-4ef3-93cb-a5ecf5048864": {
        "id": "f30c57b6-9d15-4ef3-93cb-a5ecf5048864",
        "name": "Stack Overflow",
        "keyword": "so",
        "cmd": "https://stackoverflow.com/search?q=%s",
        "icon": "/usr/share/ulauncher/media/stackoverflow-icon.svg",
        "is_default_search": true,
        "run_without_argument": false,
        "added": 1714660924.189881
    },
    "f5008ef2-cce9-4f74-8890-6af0aaba6517": {
        "id": "f5008ef2-cce9-4f74-8890-6af0aaba6517",
        "name": "Wikipedia",
        "keyword": "wiki",
        "cmd": "https://en.wikipedia.org/wiki/%s",
        "icon": "/usr/share/ulauncher/media/wikipedia-icon.png",
        "is_default_search": true,
        "run_without_argument": false,
        "added": 1714660924.1898944
    }
}