<?xml version="1.0" encoding="UTF-8" standalone="no"?>
<!-- Created with Inkscape (http://www.inkscape.org/) -->

<svg
   width="32"
   height="32"
   viewBox="0 0 8.4666665 8.4666669"
   version="1.1"
   id="svg5"
   inkscape:version="1.1.2 (0a00cf5339, 2022-02-04)"
   sodipodi:docname="AlpineLinux.svg"
   inkscape:export-filename="/home/tgy-tutorials/Scrivania/AlpineLinux.png"
   inkscape:export-xdpi="96"
   inkscape:export-ydpi="96"
   xmlns:inkscape="http://www.inkscape.org/namespaces/inkscape"
   xmlns:sodipodi="http://sodipodi.sourceforge.net/DTD/sodipodi-0.dtd"
   xmlns="http://www.w3.org/2000/svg"
   xmlns:svg="http://www.w3.org/2000/svg">
  <sodipodi:namedview
     id="namedview7"
     pagecolor="#8c8c8c"
     bordercolor="#666666"
     borderopacity="1.0"
     inkscape:pageshadow="2"
     inkscape:pageopacity="0"
     inkscape:pagecheckerboard="0"
     inkscape:document-units="px"
     showgrid="false"
     units="px"
     inkscape:showpageshadow="false"
     inkscape:zoom="5.5357018"
     inkscape:cx="47.329139"
     inkscape:cy="26.464576"
     inkscape:window-width="1920"
     inkscape:window-height="996"
     inkscape:window-x="0"
     inkscape:window-y="28"
     inkscape:window-maximized="1"
     inkscape:current-layer="layer1" />
  <defs
     id="defs2" />
  <g
     inkscape:label="Livello 1"
     inkscape:groupmode="layer"
     id="layer1">
    <path
       d="M 2.5704026,1.3263294 0.90857959,4.2333335 2.5704026,7.1403377 h 3.325863 L 7.5580876,4.2333335 5.8962656,1.3263294 Z m 1.099109,1.5420296 0.746684,0.777588 0.442746,0.446134 5.55e-4,-5.594e-4 0.66772,0.6609498 c -0.05541,0.039159 -0.106946,0.070486 -0.155985,0.09622 a 1.0406482,1.0505829 0 0 1 -0.137424,0.060697 0.74862385,0.75577071 0 0 1 -0.117751,0.031048 c -0.03629,0.00643 -0.06927,0.00951 -0.09919,0.00951 -0.03602,0 -0.06705,-0.00392 -0.09365,-0.00951 a 0.3648918,0.3683753 0 0 1 -0.0665,-0.020139 0.26320971,0.26572249 0 0 1 -0.05541,-0.031607 L 4.5070716,4.5832481 3.6650786,3.7326564 3.3603096,4.0271888 2.5097256,4.8864514 a 0.26985923,0.27243549 0 0 1 -0.05541,0.031048 0.3529781,0.35634786 0 0 1 -0.06566,0.020419 0.45992436,0.4643151 0 0 1 -0.09365,0.00923 c -0.02992,0 -0.06289,-0.00251 -0.09919,-0.00867 a 0.74806973,0.7552113 0 0 1 -0.117753,-0.031887 1.0384316,1.0483452 0 0 1 -0.137423,-0.060697 1.4484846,1.4623128 0 0 1 -0.155987,-0.09594 z m 1.307736,0.2195707 1.268671,1.2860969 0.382901,0.3784448 a 1.4518094,1.4656693 0 0 1 -0.156263,0.09622 1.0334445,1.0433104 0 0 1 -0.13687,0.060697 0.74723855,0.75437219 0 0 1 -0.118028,0.031048 c -0.03602,0.00643 -0.06955,0.00951 -0.09974,0.00951 -0.03575,0 -0.06677,-0.00392 -0.09337,-0.00951 A 0.35602578,0.35942464 0 0 1 5.9178766,4.8995976 0.06621803,0.06685019 0 0 1 5.9031916,4.8884095 L 5.5618506,4.5477252 4.9769706,3.9572618 4.8844346,4.0506838 4.4522156,3.6179756 4.9775266,3.0873698 Z m -1.652957,1.1523965 v 0.7073813 a 0.58958978,0.5952184 0 0 1 -0.09864,-0.00979 0.76607881,0.77339231 0 0 1 -0.11692,-0.032446 1.0273491,1.0371569 0 0 1 -0.135207,-0.059857 1.445437,1.4592361 0 0 1 -0.15377,-0.095101 l 0.504256,-0.5104669 z"
       id="path4431"
       style="fill:#e6e6e6;fill-opacity:1;stroke-width:0.278382" />
  </g>
  <style
     type="text/css"
     id="style884">
	.st0{fill:#FFFFFF;}
	.st1{fill:#69B53F;}
	.st2{fill:#F8F8F8;}
</style>
</svg>
