<?xml version="1.0" encoding="UTF-8" standalone="no"?>
<!-- Created with Inkscape (http://www.inkscape.org/) -->

<svg
   width="32"
   height="32"
   viewBox="0 0 8.4666665 8.4666669"
   version="1.1"
   id="svg5"
   inkscape:version="1.1.2 (0a00cf5339, 2022-02-04)"
   sodipodi:docname="arcolinux.svg"
   inkscape:export-filename="/home/tgy-tutorials/Scrivania/arcolinux.png"
   inkscape:export-xdpi="96"
   inkscape:export-ydpi="96"
   xmlns:inkscape="http://www.inkscape.org/namespaces/inkscape"
   xmlns:sodipodi="http://sodipodi.sourceforge.net/DTD/sodipodi-0.dtd"
   xmlns="http://www.w3.org/2000/svg"
   xmlns:svg="http://www.w3.org/2000/svg">
  <sodipodi:namedview
     id="namedview7"
     pagecolor="#8c8c8c"
     bordercolor="#666666"
     borderopacity="1.0"
     inkscape:pageshadow="2"
     inkscape:pageopacity="0"
     inkscape:pagecheckerboard="0"
     inkscape:document-units="px"
     showgrid="false"
     units="px"
     inkscape:showpageshadow="false"
     inkscape:zoom="6.3999065"
     inkscape:cx="-9.0626323"
     inkscape:cy="2.8906672"
     inkscape:window-width="1920"
     inkscape:window-height="996"
     inkscape:window-x="0"
     inkscape:window-y="28"
     inkscape:window-maximized="1"
     inkscape:current-layer="layer1" />
  <defs
     id="defs2">
    <linearGradient
       id="a"
       gradientTransform="matrix(4.8477747,0,0,4.8479999,-3.3589671,-7.6451138)"
       gradientUnits="userSpaceOnUse"
       x1="-3.7999998e-05"
       x2="0.99996197"
       y1="0.5"
       y2="0.5">
      <stop
         offset="0"
         stop-color="#00c6ff"
         id="stop2" />
      <stop
         offset=".98695652174"
         stop-color="#0072ff"
         id="stop4" />
    </linearGradient>
    <linearGradient
       id="linearGradient2351"
       inkscape:swatch="solid">
      <stop
         style="stop-color:#376ee5;stop-opacity:1;"
         offset="0"
         id="stop2349" />
    </linearGradient>
  </defs>
  <g
     inkscape:label="Livello 1"
     inkscape:groupmode="layer"
     id="layer1">
    <path
       id="path4914"
       style="fill:#e6e6e6;fill-opacity:1;stroke:none;stroke-width:0.454739"
       d="M 4.2334407,0.90857917 A 3.3248864,3.3248864 0 0 0 0.90857917,4.2334408 3.3248864,3.3248864 0 0 0 4.2334407,7.5583024 3.3248864,3.3248864 0 0 0 7.5583023,4.2334408 3.3248864,3.3248864 0 0 0 4.2334407,0.90857917 Z m 0.028422,0.78496503 0.053743,0.094568 c 0.02969,0.0521 0.2474193,0.4667057 0.4836914,0.9208741 0.2362716,0.4541695 0.7128086,1.3669343 1.05885,2.0288165 0.4855742,0.928769 0.6226035,1.2078012 0.5999634,1.2221477 -0.016134,0.010224 -0.2104983,0.018937 -0.4320149,0.01912 H 5.6230199 L 5.5041641,5.8586645 C 5.2061792,5.5565045 4.685276,5.2824774 4.103216,5.1217586 l -0.260449,-0.07183 0.3260781,-0.016536 c 0.306211,-0.015359 0.6513981,-0.00488 0.840259,0.025321 0.063124,0.010095 0.083199,0.00615 0.083199,-0.017053 0,-0.057317 -0.7990824,-1.5182535 -0.8304403,-1.5182538 -0.02286,0 -0.1841085,0.2815177 -0.8102865,1.4128337 -0.3076101,0.5557594 -0.5611981,1.0124067 -0.563273,1.0149253 -0.00925,0.011188 -0.8722974,0.032822 -0.8816001,0.022221 0,-0.014714 2.1339992,-4.0747322 2.2055502,-4.1961262 z" />
  </g>
  <style
     type="text/css"
     id="style884">
	.st0{fill:#FFFFFF;}
	.st1{fill:#69B53F;}
	.st2{fill:#F8F8F8;}
</style>
</svg>
