<?xml version="1.0" encoding="UTF-8" standalone="no"?>
<!-- Created with Inkscape (http://www.inkscape.org/) -->

<svg
   width="32"
   height="32"
   viewBox="0 0 8.4666665 8.4666669"
   version="1.1"
   id="svg5"
   inkscape:version="1.1.2 (0a00cf5339, 2022-02-04)"
   sodipodi:docname="devuan.svg"
   inkscape:export-filename="/home/tgy-tutorials/Scrivania/devuan.png"
   inkscape:export-xdpi="96"
   inkscape:export-ydpi="96"
   xmlns:inkscape="http://www.inkscape.org/namespaces/inkscape"
   xmlns:sodipodi="http://sodipodi.sourceforge.net/DTD/sodipodi-0.dtd"
   xmlns="http://www.w3.org/2000/svg"
   xmlns:svg="http://www.w3.org/2000/svg">
  <sodipodi:namedview
     id="namedview7"
     pagecolor="#8c8c8c"
     bordercolor="#666666"
     borderopacity="1.0"
     inkscape:pageshadow="2"
     inkscape:pageopacity="0"
     inkscape:pagecheckerboard="0"
     inkscape:document-units="px"
     showgrid="false"
     units="px"
     inkscape:showpageshadow="false"
     inkscape:zoom="15.656823"
     inkscape:cx="16.031349"
     inkscape:cy="15.999414"
     inkscape:window-width="1920"
     inkscape:window-height="996"
     inkscape:window-x="0"
     inkscape:window-y="28"
     inkscape:window-maximized="1"
     inkscape:current-layer="layer1" />
  <defs
     id="defs2" />
  <g
     inkscape:label="Livello 1"
     inkscape:groupmode="layer"
     id="layer1">
    <path
       id="path3223"
       style="fill:#e6e6e6;fill-opacity:1;stroke-width:0.178836"
       d="M 4.233441,0.90857917 A 3.3247541,3.3247541 0 0 0 0.90857917,4.2334408 3.3247541,3.3247541 0 0 0 4.233441,7.5583024 3.3247541,3.3247541 0 0 0 7.5577858,4.2334408 3.3247541,3.3247541 0 0 0 4.233441,0.90857917 Z M 2.2625018,2.1260758 c 3.2181929,0.4607645 4.3504813,1.403831 4.3645912,1.9611207 0.028113,1.11011 -3.7114011,2.221053 -3.7114011,2.221053 0,0 -0.1239054,0.055394 -0.2775024,0.020671 C 2.5405615,6.3068499 2.4272893,6.2558868 2.3379493,6.107745 2.2645393,5.986001 2.2712153,5.81267 2.3498353,5.684515 2.4198233,5.570433 2.5359287,5.4951552 2.6800478,5.4721249 c 0,0 7.3155687,-1.5006103 -0.417546,-3.3460491 z" />
  </g>
  <style
     type="text/css"
     id="style884">
	.st0{fill:#FFFFFF;}
	.st1{fill:#69B53F;}
	.st2{fill:#F8F8F8;}
</style>
</svg>
