<?xml version="1.0" encoding="UTF-8" standalone="no"?>
<!-- Created with Inkscape (http://www.inkscape.org/) -->

<svg
   width="32"
   height="32"
   viewBox="0 0 8.4666665 8.4666669"
   version="1.1"
   id="svg5"
   inkscape:version="1.1.2 (0a00cf5339, 2022-02-04)"
   sodipodi:docname="gentoo.svg"
   inkscape:export-filename="/home/tgy-tutorials/Scrivania/gentoo.png"
   inkscape:export-xdpi="96"
   inkscape:export-ydpi="96"
   xmlns:inkscape="http://www.inkscape.org/namespaces/inkscape"
   xmlns:sodipodi="http://sodipodi.sourceforge.net/DTD/sodipodi-0.dtd"
   xmlns="http://www.w3.org/2000/svg"
   xmlns:svg="http://www.w3.org/2000/svg">
  <sodipodi:namedview
     id="namedview7"
     pagecolor="#8c8c8c"
     bordercolor="#666666"
     borderopacity="1.0"
     inkscape:pageshadow="2"
     inkscape:pageopacity="0"
     inkscape:pagecheckerboard="0"
     inkscape:document-units="px"
     showgrid="false"
     units="px"
     inkscape:showpageshadow="false"
     inkscape:zoom="6.1627279"
     inkscape:cx="-22.717213"
     inkscape:cy="21.337953"
     inkscape:window-width="1920"
     inkscape:window-height="996"
     inkscape:window-x="0"
     inkscape:window-y="28"
     inkscape:window-maximized="1"
     inkscape:current-layer="layer1" />
  <defs
     id="defs2">
    <inkscape:path-effect
       is_visible="true"
       id="path-effect2991"
       effect="spiro" />
    <inkscape:path-effect
       effect="spiro"
       id="path-effect3177"
       is_visible="true" />
    <linearGradient
       id="_Linear1"
       x1="0"
       y1="0"
       x2="1"
       y2="0"
       gradientUnits="userSpaceOnUse"
       gradientTransform="matrix(2.6326755,13.788376,-13.788376,2.6326755,-13.710089,-7.4949746)">
      <stop
         offset="0%"
         style="stop-color:#fff;stop-opacity:1"
         id="stop7161" />
      <stop
         offset="34%"
         style="stop-color:#fff;stop-opacity:1"
         id="stop7163" />
      <stop
         offset="51%"
         style="stop-color:#bebdf3;stop-opacity:1"
         id="stop7165" />
      <stop
         offset="75%"
         style="stop-color:#867fb7;stop-opacity:1"
         id="stop7167" />
      <stop
         offset="87%"
         style="stop-color:#9f99c7;stop-opacity:1"
         id="stop7169" />
      <stop
         offset="100%"
         style="stop-color:#524c76;stop-opacity:1"
         id="stop7171" />
    </linearGradient>
    <linearGradient
       id="_Linear2"
       x1="0"
       y1="0"
       x2="1"
       y2="0"
       gradientUnits="userSpaceOnUse"
       gradientTransform="matrix(-0.79521127,-3.5655144,3.5655144,-0.79521127,-9.63437,-0.10390931)">
      <stop
         offset="0%"
         style="stop-color:#fff;stop-opacity:1"
         id="stop7174" />
      <stop
         offset="34%"
         style="stop-color:#fff;stop-opacity:1"
         id="stop7176" />
      <stop
         offset="51%"
         style="stop-color:#bebbdb;stop-opacity:1"
         id="stop7178" />
      <stop
         offset="75%"
         style="stop-color:#928bbe;stop-opacity:1"
         id="stop7180" />
      <stop
         offset="87%"
         style="stop-color:#9f99c7;stop-opacity:1"
         id="stop7182" />
      <stop
         offset="100%"
         style="stop-color:#524c76;stop-opacity:1"
         id="stop7184" />
    </linearGradient>
    <radialGradient
       id="_Radial3"
       cx="0"
       cy="0"
       r="1"
       gradientUnits="userSpaceOnUse"
       gradientTransform="matrix(0.70769104,0,0,0.54242097,-10.56723,-2.271521)">
      <stop
         offset="0%"
         style="stop-color:#fff;stop-opacity:1"
         id="stop7187" />
      <stop
         offset="34%"
         style="stop-color:#fff;stop-opacity:1"
         id="stop7189" />
      <stop
         offset="51%"
         style="stop-color:#bebbdb;stop-opacity:1"
         id="stop7191" />
      <stop
         offset="75%"
         style="stop-color:#928bbe;stop-opacity:1"
         id="stop7193" />
      <stop
         offset="87%"
         style="stop-color:#9f99c7;stop-opacity:1"
         id="stop7195" />
      <stop
         offset="100%"
         style="stop-color:#524c76;stop-opacity:1"
         id="stop7197" />
    </radialGradient>
    <radialGradient
       id="_Radial4"
       cx="0"
       cy="0"
       r="1"
       gradientUnits="userSpaceOnUse"
       gradientTransform="matrix(-0.11970305,7.5952663,-6.4777707,-0.10199171,-7.4434015,2.8369474)">
      <stop
         offset="0%"
         style="stop-color:#fff;stop-opacity:1"
         id="stop7200" />
      <stop
         offset="34%"
         style="stop-color:#fff;stop-opacity:1"
         id="stop7202" />
      <stop
         offset="51%"
         style="stop-color:#bebbdb;stop-opacity:1"
         id="stop7204" />
      <stop
         offset="75%"
         style="stop-color:#928bbe;stop-opacity:1"
         id="stop7206" />
      <stop
         offset="87%"
         style="stop-color:#9f99c7;stop-opacity:1"
         id="stop7208" />
      <stop
         offset="100%"
         style="stop-color:#524c76;stop-opacity:1"
         id="stop7210" />
    </radialGradient>
  </defs>
  <g
     inkscape:label="Livello 1"
     inkscape:groupmode="layer"
     id="layer1">
    <path
       id="path6975"
       style="fill:#e6e6e6;fill-opacity:1;stroke-width:0.374994"
       d="M 4.232924,0.90857917 A 3.3247541,3.3247541 0 0 0 0.90857917,4.2334408 3.3247541,3.3247541 0 0 0 4.232924,7.5577856 3.3247541,3.3247541 0 0 0 7.5577857,4.2334408 3.3247541,3.3247541 0 0 0 4.232924,0.90857917 Z M 4.0985654,2.0020524 C 4.4428603,1.9967824 4.7184386,2.142813 5.0277077,2.3162451 5.5002869,2.5812553 5.8956532,2.927269 6.2689755,3.320835 6.4080982,3.4756091 6.5374075,3.6137993 6.6343278,3.7998755 6.6960448,3.9183819 6.6993808,4.0215987 6.6674008,4.1331883 6.6413684,4.2240563 6.1148541,4.7812955 5.5486061,5.2199437 5.0040624,5.6417591 4.3179031,6.0709181 3.7957416,6.265358 3.438416,6.398414 2.9037298,6.4946919 2.6459407,6.3470068 2.4252729,6.2205881 2.3625715,5.9732873 2.3839413,5.7914853 2.4292888,5.4056585 3.0791025,4.8995156 3.5595803,4.4835546 3.7499827,4.3187179 3.828025,4.2157238 3.7099586,4.1590267 3.3068342,3.9654496 2.8155088,3.7655792 2.5219173,3.5187557 2.4302934,3.4416805 2.3977925,3.3313543 2.4252825,3.2040463 2.4974584,2.8697799 2.7791666,2.5881065 2.9322284,2.472308 3.388904,2.1267977 3.4854213,2.0618834 3.9895282,2.0087704 c 0.0372,-0.00392 0.073421,-0.00617 0.1090372,-0.00672 z M 4.3140561,2.7839168 C 4.082103,2.790776 3.9240243,2.9459761 3.9052955,3.2769099 3.885728,3.6182917 4.5253423,3.8681303 4.7269508,3.7957414 5.4683342,3.5295497 5.0942393,3.067471 4.7300515,2.8914038 4.5771895,2.8175011 4.4355554,2.7803239 4.3140561,2.7839168 Z" />
  </g>
  <style
     type="text/css"
     id="style884">
	.st0{fill:#FFFFFF;}
	.st1{fill:#69B53F;}
	.st2{fill:#F8F8F8;}
</style>
  <style
     id="style6566">.st0{fill:red}</style>
</svg>
