<?xml version="1.0" encoding="UTF-8" standalone="no"?>
<!-- Created with Inkscape (http://www.inkscape.org/) -->

<svg
   width="32"
   height="32"
   viewBox="0 0 8.4666665 8.4666669"
   version="1.1"
   id="svg5"
   inkscape:version="1.1.2 (0a00cf5339, 2022-02-04)"
   sodipodi:docname="help.svg"
   inkscape:export-filename="/home/tgy-tutorials/Scrivania/help.png"
   inkscape:export-xdpi="96"
   inkscape:export-ydpi="96"
   xmlns:inkscape="http://www.inkscape.org/namespaces/inkscape"
   xmlns:sodipodi="http://sodipodi.sourceforge.net/DTD/sodipodi-0.dtd"
   xmlns="http://www.w3.org/2000/svg"
   xmlns:svg="http://www.w3.org/2000/svg">
  <sodipodi:namedview
     id="namedview7"
     pagecolor="#8c8c8c"
     bordercolor="#666666"
     borderopacity="1.0"
     inkscape:pageshadow="2"
     inkscape:pageopacity="0"
     inkscape:pagecheckerboard="0"
     inkscape:document-units="px"
     showgrid="false"
     units="px"
     inkscape:showpageshadow="false"
     inkscape:zoom="11.071404"
     inkscape:cx="8.6709874"
     inkscape:cy="6.8193703"
     inkscape:window-width="1920"
     inkscape:window-height="996"
     inkscape:window-x="0"
     inkscape:window-y="28"
     inkscape:window-maximized="1"
     inkscape:current-layer="layer1" />
  <defs
     id="defs2" />
  <g
     inkscape:label="Livello 1"
     inkscape:groupmode="layer"
     id="layer1">
    <path
       d="M 5.254033,3.983977 4.9548051,4.2898545 C 4.7154228,4.5292368 4.5658089,4.7320467 4.5658089,5.2307598 H 3.9008581 V 5.0645221 c 0,-0.3690477 0.149614,-0.7015231 0.3889963,-0.9409054 L 4.7021238,3.7046977 C 4.82514,3.5850065 4.8982844,3.4187688 4.8982844,3.2359074 c 0,-0.3690478 -0.2992279,-0.664951 -0.6649509,-0.664951 A 0.66495083,0.66495083 0 0 0 3.5683826,3.2359074 H 2.9034319 A 1.3299016,1.3299016 0 0 1 4.2333335,1.9060057 1.3299016,1.3299016 0 0 1 5.5632351,3.2359074 c 0,0.2925783 -0.1196911,0.5552339 -0.3092021,0.7480696 M 4.5658089,6.5606616 H 3.9008581 V 5.8957107 H 4.5658089 M 4.2333335,0.90857942 A 3.3247541,3.3247541 0 0 0 0.90857943,4.2333336 3.3247541,3.3247541 0 0 0 4.2333335,7.5580878 3.3247541,3.3247541 0 0 0 7.5580877,4.2333336 c 0,-1.838589 -1.4961393,-3.32475418 -3.3247542,-3.32475418 z"
       id="path12276"
       style="fill:#e6e6e6;fill-opacity:1;stroke-width:0.332475" />
  </g>
  <style
     type="text/css"
     id="style884">
	.st0{fill:#FFFFFF;}
	.st1{fill:#69B53F;}
	.st2{fill:#F8F8F8;}
</style>
</svg>
