<?xml version="1.0" encoding="UTF-8" standalone="no"?>
<!-- Created with Inkscape (http://www.inkscape.org/) -->

<svg
   width="32"
   height="32"
   viewBox="0 0 8.4666665 8.4666669"
   version="1.1"
   id="svg5"
   inkscape:version="1.1.2 (0a00cf5339, 2022-02-04)"
   sodipodi:docname="submenu.svg"
   inkscape:export-filename="/home/tgy-tutorials/Scrivania/submenu.png"
   inkscape:export-xdpi="96"
   inkscape:export-ydpi="96"
   xmlns:inkscape="http://www.inkscape.org/namespaces/inkscape"
   xmlns:sodipodi="http://sodipodi.sourceforge.net/DTD/sodipodi-0.dtd"
   xmlns="http://www.w3.org/2000/svg"
   xmlns:svg="http://www.w3.org/2000/svg">
  <sodipodi:namedview
     id="namedview7"
     pagecolor="#8c8c8c"
     bordercolor="#666666"
     borderopacity="1.0"
     inkscape:pageshadow="2"
     inkscape:pageopacity="0"
     inkscape:pagecheckerboard="0"
     inkscape:document-units="px"
     showgrid="false"
     units="px"
     inkscape:showpageshadow="false"
     inkscape:zoom="5.5357018"
     inkscape:cx="8.6709874"
     inkscape:cy="34.232336"
     inkscape:window-width="1920"
     inkscape:window-height="996"
     inkscape:window-x="0"
     inkscape:window-y="28"
     inkscape:window-maximized="1"
     inkscape:current-layer="layer1"
     inkscape:snap-global="true"
     inkscape:snap-bbox="false"
     inkscape:object-paths="true"
     inkscape:snap-intersection-paths="true"
     inkscape:snap-smooth-nodes="true"
     inkscape:snap-midpoints="true"
     inkscape:snap-object-midpoints="true"
     inkscape:snap-center="true"
     inkscape:snap-text-baseline="true"
     inkscape:snap-bbox-midpoints="true"
     inkscape:snap-bbox-edge-midpoints="true"
     inkscape:bbox-nodes="true"
     inkscape:bbox-paths="true"
     inkscape:snap-nodes="false"
     inkscape:snap-others="false" />
  <defs
     id="defs2" />
  <g
     inkscape:label="Livello 1"
     inkscape:groupmode="layer"
     id="layer1">
    <g
       id="g6014"
       transform="matrix(1.2786038,0,0,1.2786038,-12.105248,-0.1316482)">
      <path
         style="fill:none;stroke:#e6e6e6;stroke-width:0.529167;stroke-linecap:butt;stroke-linejoin:miter;stroke-miterlimit:4;stroke-dasharray:none;stroke-opacity:1"
         d="M 11.362631,2.002327 V 5.4492571"
         id="path878" />
      <path
         style="fill:none;stroke:#e6e6e6;stroke-width:0.409157;stroke-linecap:butt;stroke-linejoin:miter;stroke-miterlimit:4;stroke-dasharray:none;stroke-opacity:1"
         d="M 13.661412,3.4290218 H 11.600656"
         id="path1937" />
      <path
         style="fill:none;stroke:#e6e6e6;stroke-width:0.409157;stroke-linecap:butt;stroke-linejoin:miter;stroke-miterlimit:4;stroke-dasharray:none;stroke-opacity:1"
         d="M 13.661412,5.2446786 H 11.600656"
         id="path1939" />
      <circle
         style="opacity:1;fill:#e6e6e6;fill-opacity:1;stroke:none;stroke-width:3.17586;stroke-miterlimit:4;stroke-dasharray:none;stroke-opacity:1"
         id="path1963"
         cx="11.362631"
         cy="1.5830531"
         r="0.64481163" />
      <circle
         style="opacity:1;fill:#e6e6e6;fill-opacity:1;stroke:none;stroke-width:3.17586;stroke-miterlimit:4;stroke-dasharray:none;stroke-opacity:1"
         id="circle5924"
         cx="14.19428"
         cy="3.4290221"
         r="0.64481163" />
      <circle
         style="opacity:1;fill:#e6e6e6;fill-opacity:1;stroke:none;stroke-width:3.17586;stroke-miterlimit:4;stroke-dasharray:none;stroke-opacity:1"
         id="circle5926"
         cx="14.158573"
         cy="5.2446785"
         r="0.64481163" />
    </g>
  </g>
  <style
     type="text/css"
     id="style884">
	.st0{fill:#FFFFFF;}
	.st1{fill:#69B53F;}
	.st2{fill:#F8F8F8;}
</style>
</svg>
