<?xml version="1.0" encoding="UTF-8" standalone="no"?>
<!-- Created with Inkscape (http://www.inkscape.org/) -->

<svg
   width="32"
   height="32"
   viewBox="0 0 8.4666665 8.4666669"
   version="1.1"
   id="svg5"
   inkscape:version="1.1.2 (0a00cf5339, 2022-02-04)"
   sodipodi:docname="ubuntu.svg"
   inkscape:export-filename="/home/tgy-tutorials/Scrivania/ubuntu.png"
   inkscape:export-xdpi="96"
   inkscape:export-ydpi="96"
   xmlns:inkscape="http://www.inkscape.org/namespaces/inkscape"
   xmlns:sodipodi="http://sodipodi.sourceforge.net/DTD/sodipodi-0.dtd"
   xmlns="http://www.w3.org/2000/svg"
   xmlns:svg="http://www.w3.org/2000/svg">
  <sodipodi:namedview
     id="namedview7"
     pagecolor="#8c8c8c"
     bordercolor="#666666"
     borderopacity="1.0"
     inkscape:pageshadow="2"
     inkscape:pageopacity="0"
     inkscape:pagecheckerboard="0"
     inkscape:document-units="px"
     showgrid="false"
     units="px"
     inkscape:showpageshadow="false"
     inkscape:zoom="5.5357018"
     inkscape:cx="-36.129114"
     inkscape:cy="-17.251652"
     inkscape:window-width="1920"
     inkscape:window-height="996"
     inkscape:window-x="0"
     inkscape:window-y="28"
     inkscape:window-maximized="1"
     inkscape:current-layer="layer1" />
  <defs
     id="defs2" />
  <g
     inkscape:label="Livello 1"
     inkscape:groupmode="layer"
     id="layer1">
    <path
       d="M 7.5580876,4.2333334 A 3.324754,3.3247541 0 0 1 4.2333334,7.5580875 3.324754,3.3247541 0 0 1 0.90857917,4.2333334 3.324754,3.3247541 0 0 1 4.2333334,0.90857917 3.324754,3.3247541 0 0 1 7.5580876,4.2333334 M 5.0113259,2.8169881 C 5.2041616,2.9267056 5.4468687,2.8602101 5.563235,2.6706989 5.6663026,2.4811879 5.603132,2.2384809 5.4102964,2.1254393 5.2207854,2.0157218 4.9747536,2.0722433 4.8650367,2.2717284 4.7553204,2.4612394 4.8218147,2.7072712 5.0113259,2.8169881 M 4.1934364,5.3969974 c -0.176212,0 -0.3424496,-0.036572 -0.4887388,-0.1063926 L 3.4254182,5.7893179 c 0.2327324,0.1063926 0.4920636,0.1795367 0.7680182,0.1795367 0.1629129,0 0.3158517,-0.023273 0.4654656,-0.063171 C 4.6855,5.7427713 4.7785931,5.5964821 4.9315318,5.5100385 5.0844704,5.4202695 5.2573577,5.4136205 5.4102964,5.4701415 5.7061995,5.1808879 5.8957105,4.7852421 5.9256333,4.3430499 l -0.568533,-0.00665 C 5.3039043,4.9315309 4.8051911,5.3969965 4.1934364,5.3969965 m 0,-2.327328 c 0.6117547,0 1.1104678,0.4621409 1.1636639,1.0605967 l 0.568533,-0.00998 C 5.8957103,3.6814208 5.7061995,3.285775 5.4102964,2.9965214 5.2573577,3.0530424 5.0811457,3.0430684 4.9315318,2.9566244 4.7785931,2.8701804 4.6854999,2.7205669 4.658902,2.5609787 4.5092881,2.5210817 4.3563493,2.4978077 4.1934364,2.4978077 c -0.2759546,0 -0.5352858,0.063171 -0.7680182,0.1795367 L 3.7046976,3.1760576 C 3.8509868,3.1062366 4.0172244,3.069665 4.1934364,3.069665 M 3.0264482,4.233329 c 0,-0.3956458 0.1961598,-0.744745 0.4953877,-0.9542045 L 3.2359079,2.787061 C 2.8834832,3.0231185 2.6208272,3.3788671 2.5144362,3.7977862 c 0.12634,0.1030675 0.206134,0.2593308 0.206134,0.4355428 0,0.176212 -0.07979,0.3324754 -0.206134,0.4355428 0.106396,0.4155942 0.369047,0.7746676 0.7214717,1.0074005 L 3.5218359,5.1875335 C 3.222608,4.9780739 3.0264482,4.6289748 3.0264482,4.233329 M 5.0113259,5.6496742 C 4.8218149,5.7593905 4.7553198,6.0020983 4.8650367,6.1949339 4.9747529,6.3844449 5.2207854,6.4509401 5.4102964,6.3412232 5.6031322,6.2281819 5.6663025,5.9854744 5.563235,5.7959635 5.4468688,5.6031278 5.2041616,5.5399573 5.0113259,5.6496742 M 2.1586872,3.8343585 c -0.219433,0 -0.39897,0.1795367 -0.39897,0.3989705 0,0.2194338 0.179537,0.3989705 0.39897,0.3989705 0.222758,0 0.398971,-0.1795367 0.398971,-0.3989705 0,-0.2194338 -0.176213,-0.3989705 -0.398971,-0.3989705 z"
       id="path1047"
       style="fill:#e6e6e6;fill-opacity:1;stroke-width:0.332475" />
  </g>
  <style
     type="text/css"
     id="style884">
	.st0{fill:#FFFFFF;}
	.st1{fill:#69B53F;}
	.st2{fill:#F8F8F8;}
</style>
</svg>
