<?xml version="1.0" encoding="UTF-8" standalone="no"?>
<!-- Created with Inkscape (http://www.inkscape.org/) -->

<svg
   width="32"
   height="32"
   viewBox="0 0 8.4666665 8.4666669"
   version="1.1"
   id="svg5"
   inkscape:version="1.1.2 (0a00cf5339, 2022-02-04)"
   sodipodi:docname="thunar-gpg-decrypt.svg"
   inkscape:export-filename="/home/tgy-tutorials/.icons/thunar-icons/thunar-gpg-decrypt.png"
   inkscape:export-xdpi="96"
   inkscape:export-ydpi="96"
   xmlns:inkscape="http://www.inkscape.org/namespaces/inkscape"
   xmlns:sodipodi="http://sodipodi.sourceforge.net/DTD/sodipodi-0.dtd"
   xmlns="http://www.w3.org/2000/svg"
   xmlns:svg="http://www.w3.org/2000/svg">
  <sodipodi:namedview
     id="namedview7"
     pagecolor="#8c8c8c"
     bordercolor="#666666"
     borderopacity="1.0"
     inkscape:pageshadow="2"
     inkscape:pageopacity="0"
     inkscape:pagecheckerboard="0"
     inkscape:document-units="px"
     showgrid="false"
     units="px"
     inkscape:zoom="6.3072847"
     inkscape:cx="-10.860458"
     inkscape:cy="4.5185847"
     inkscape:window-width="1920"
     inkscape:window-height="1011"
     inkscape:window-x="0"
     inkscape:window-y="33"
     inkscape:window-maximized="1"
     inkscape:current-layer="layer1" />
  <defs
     id="defs2" />
  <g
     inkscape:label="Livello 1"
     inkscape:groupmode="layer"
     id="layer1">
    <g
       style="fill:#b5a5a7;fill-opacity:1"
       id="g888"
       transform="matrix(0.37437219,0,0,0.37436948,-0.25900063,-0.11871185)">
      <path
         fill-rule="evenodd"
         clip-rule="evenodd"
         d="M 12,2.75 C 9.10051,2.75 6.75,5.10051 6.75,8 v 2.0036 C 7.13301,10 7.54849,10 8,10 h 8 c 2.8284,0 4.2426,0 5.1213,0.8787 C 22,11.7574 22,13.1716 22,16 c 0,2.8284 0,4.2426 -0.8787,5.1213 C 20.2426,22 18.8284,22 16,22 H 8 C 5.17157,22 3.75736,22 2.87868,21.1213 2,20.2426 2,18.8284 2,16 2,13.1716 2,11.7574 2.87868,10.8787 3.40931,10.348 4.13525,10.1379 5.25,10.0546 V 8 c 0,-3.72792 3.02208,-6.75 6.75,-6.75 3.1463,0 5.788,2.1519 6.5373,5.06306 C 18.6405,6.7142 18.3991,7.12308 17.9979,7.22633 17.5968,7.32957 17.1879,7.08808 17.0846,6.68694 16.5018,4.42242 14.4453,2.75 12,2.75 Z M 12.75,14 c 0,-0.4142 -0.3358,-0.75 -0.75,-0.75 -0.4142,0 -0.75,0.3358 -0.75,0.75 v 4 c 0,0.4142 0.3358,0.75 0.75,0.75 0.4142,0 0.75,-0.3358 0.75,-0.75 z"
         fill="#1c274c"
         id="path879"
         style="fill:#b5a5a7;fill-opacity:1" />
    </g>
  </g>
</svg>
