<?xml version="1.0" encoding="UTF-8" standalone="no"?>
<!-- Created with Inkscape (http://www.inkscape.org/) -->

<svg
   width="32"
   height="32"
   viewBox="0 0 8.4666665 8.4666669"
   version="1.1"
   id="svg5"
   inkscape:version="1.1.2 (0a00cf5339, 2022-02-04)"
   sodipodi:docname="thunar-convert-to-png.svg"
   inkscape:export-filename="/home/tgy-tutorials/.icons/thunar-icons/thunar-convert-to-png.png"
   inkscape:export-xdpi="96"
   inkscape:export-ydpi="96"
   xmlns:inkscape="http://www.inkscape.org/namespaces/inkscape"
   xmlns:sodipodi="http://sodipodi.sourceforge.net/DTD/sodipodi-0.dtd"
   xmlns="http://www.w3.org/2000/svg"
   xmlns:svg="http://www.w3.org/2000/svg">
  <sodipodi:namedview
     id="namedview7"
     pagecolor="#8c8c8c"
     bordercolor="#666666"
     borderopacity="1.0"
     inkscape:pageshadow="2"
     inkscape:pageopacity="0"
     inkscape:pagecheckerboard="0"
     inkscape:document-units="px"
     showgrid="false"
     units="px"
     inkscape:zoom="19.926266"
     inkscape:cx="16.034113"
     inkscape:cy="15.983928"
     inkscape:window-width="1920"
     inkscape:window-height="1011"
     inkscape:window-x="0"
     inkscape:window-y="33"
     inkscape:window-maximized="1"
     inkscape:current-layer="layer1" />
  <defs
     id="defs2" />
  <g
     inkscape:label="Livello 1"
     inkscape:groupmode="layer"
     id="layer1">
    <g
       style="fill:#b5a5a7;fill-opacity:1"
       id="g927"
       transform="matrix(0.16841605,0,0,0.16841605,-0.14548371,-0.14548371)">
      <g
         id="g914"
         style="fill:#b5a5a7;fill-opacity:1">
        <g
           id="g908"
           style="fill:#b5a5a7;fill-opacity:1">
          <path
             d="M 44.4,19 H 33.2 C 30.6,19 29,17.4 29,14.8 V 3.6 C 29,2.7 28.3,2 27.4,2 H 10.8 C 8.2,2 6,4.2 6,6.8 V 45.2 C 6,47.8 8.2,50 10.8,50 H 41.2 C 43.8,50 46,47.8 46,45.2 V 20.6 C 46,19.7 45.3,19 44.4,19 Z"
             id="path906"
             style="fill:#b5a5a7;fill-opacity:1" />
        </g>
        <g
           id="g912"
           style="fill:#b5a5a7;fill-opacity:1">
          <path
             d="M 45.7,12.9 35.1,2.3 C 34.9,2.1 34.5,2 34.2,2 V 2 C 33.6,2 33,2.5 33,3.1 v 8.5 c 0,1.8 1.6,3.4 3.4,3.4 h 8.5 c 0.6,0 1.1,-0.6 1.1,-1.2 v 0 c 0,-0.3 -0.1,-0.7 -0.3,-0.9 z"
             id="path910"
             style="fill:#b5a5a7;fill-opacity:1" />
        </g>
      </g>
    </g>
    <text
       xml:space="preserve"
       style="font-style:normal;font-variant:normal;font-weight:bold;font-stretch:normal;font-size:2.6469px;line-height:1.25;font-family:'SauceCodePro Nerd Font';-inkscape-font-specification:'SauceCodePro Nerd Font, Bold';font-variant-ligatures:normal;font-variant-caps:normal;font-variant-numeric:normal;font-variant-east-asian:normal;fill:#1e1e2e;fill-opacity:1;stroke:none;stroke-width:0.248147"
       x="1.0455483"
       y="7.1967111"
       id="text4381"><tspan
         sodipodi:role="line"
         id="tspan7411"
         x="1.0455483"
         y="7.1967111"
         style="stroke-width:0.248147;fill:#1e1e2e;fill-opacity:1">PNG</tspan></text>
  </g>
</svg>
