<?xml version="1.0" encoding="UTF-8" standalone="no"?>
<!-- Created with Inkscape (http://www.inkscape.org/) -->

<svg
   width="32"
   height="32"
   viewBox="0 0 8.4666665 8.4666669"
   version="1.1"
   id="svg5"
   inkscape:version="1.1.2 (0a00cf5339, 2022-02-04)"
   sodipodi:docname="thunar-upload-to-imgur.svg"
   inkscape:export-filename="/home/tgy-tutorials/.icons/thunar-icons/thunar-upload-to-imgur.png"
   inkscape:export-xdpi="96"
   inkscape:export-ydpi="96"
   xmlns:inkscape="http://www.inkscape.org/namespaces/inkscape"
   xmlns:sodipodi="http://sodipodi.sourceforge.net/DTD/sodipodi-0.dtd"
   xmlns="http://www.w3.org/2000/svg"
   xmlns:svg="http://www.w3.org/2000/svg">
  <sodipodi:namedview
     id="namedview7"
     pagecolor="#8c8c8c"
     bordercolor="#666666"
     borderopacity="1.0"
     inkscape:pageshadow="2"
     inkscape:pageopacity="0"
     inkscape:pagecheckerboard="0"
     inkscape:document-units="px"
     showgrid="false"
     units="px"
     inkscape:zoom="14.089998"
     inkscape:cx="16.075233"
     inkscape:cy="12.668561"
     inkscape:window-width="1920"
     inkscape:window-height="1011"
     inkscape:window-x="0"
     inkscape:window-y="33"
     inkscape:window-maximized="1"
     inkscape:current-layer="layer1" />
  <defs
     id="defs2" />
  <g
     inkscape:label="Livello 1"
     inkscape:groupmode="layer"
     id="layer1">
    <path
       id="path1454"
       style="fill:#b5a5a7;fill-opacity:1;stroke-width:0.396791"
       d="M 4.2335798,0.44030441 A 3.792857,3.792857 0 0 0 0.44055057,4.2333335 3.792857,3.792857 0 0 0 4.2335798,8.0263628 3.792857,3.792857 0 0 0 8.0261166,4.2333335 3.792857,3.792857 0 0 0 4.2335798,0.44030441 Z m 0,0.86319359 A 0.66206914,0.66206914 0 0 1 4.8953779,1.9652962 0.66206914,0.66206914 0 0 1 4.2335798,2.6275868 0.66206914,0.66206914 0 0 1 3.5712892,1.9652962 0.66206914,0.66206914 0 0 1 4.2335798,1.303498 Z m -0.0064,1.7652876 h 0.012803 c 0.2522784,0 0.4554785,0.1824082 0.4554785,0.4091922 V 6.753977 c 0,0.226784 -0.2032001,0.4091922 -0.4554785,0.4091922 h -0.012803 c -0.2522782,0 -0.4554785,-0.1824082 -0.4554785,-0.4091922 V 3.4779778 c 0,-0.226784 0.2032003,-0.4091922 0.4554785,-0.4091922 z" />
  </g>
</svg>
