<?xml version="1.0" encoding="UTF-8" standalone="no"?>
<!-- Created with Inkscape (http://www.inkscape.org/) -->

<svg
   width="32"
   height="32"
   viewBox="0 0 8.4666665 8.4666669"
   version="1.1"
   id="svg5"
   inkscape:version="1.1.2 (0a00cf5339, 2022-02-04)"
   sodipodi:docname="thunar-gpg-info.svg"
   inkscape:export-filename="/home/tgy-tutorials/.icons/thunar-icons/thunar-gpg-info.png"
   inkscape:export-xdpi="96"
   inkscape:export-ydpi="96"
   xmlns:inkscape="http://www.inkscape.org/namespaces/inkscape"
   xmlns:sodipodi="http://sodipodi.sourceforge.net/DTD/sodipodi-0.dtd"
   xmlns="http://www.w3.org/2000/svg"
   xmlns:svg="http://www.w3.org/2000/svg">
  <sodipodi:namedview
     id="namedview7"
     pagecolor="#8c8c8c"
     bordercolor="#666666"
     borderopacity="1.0"
     inkscape:pageshadow="2"
     inkscape:pageopacity="0"
     inkscape:pagecheckerboard="0"
     inkscape:document-units="px"
     showgrid="false"
     units="px"
     inkscape:zoom="11.65667"
     inkscape:cx="15.74206"
     inkscape:cy="2.0160131"
     inkscape:window-width="1920"
     inkscape:window-height="1011"
     inkscape:window-x="0"
     inkscape:window-y="33"
     inkscape:window-maximized="1"
     inkscape:current-layer="layer1" />
  <defs
     id="defs2" />
  <g
     inkscape:label="Livello 1"
     inkscape:groupmode="layer"
     id="layer1">
    <path
       id="path865"
       style="opacity:1;fill:#b5a5a7;fill-opacity:1;stroke-width:1.52636"
       d="M 15.714844 0.53320312 C 14.476354 0.53320312 13.280907 0.94285637 10.888672 1.7617188 L 10.013672 2.0605469 C 5.4245287 3.6314323 3.1309045 4.4172972 2.5546875 5.2382812 C 1.9784559 6.0592653 1.9785156 8.4981672 1.9785156 13.378906 L 1.9785156 15.783203 C 1.9785156 24.388829 8.4483013 28.564564 12.507812 30.337891 C 13.60899 30.818847 14.159024 31.060547 15.714844 31.060547 C 17.270664 31.060547 17.822711 30.818846 18.923828 30.337891 C 22.983339 28.564564 29.453125 24.388829 29.453125 15.783203 L 29.453125 13.378906 C 29.453125 8.4981672 29.453155 6.0592653 28.876953 5.2382812 C 28.300752 4.4172972 26.005174 3.6314323 21.416016 2.0605469 L 20.542969 1.7617188 C 18.150702 0.94285637 16.953334 0.53320312 15.714844 0.53320312 z M 15.748047 6.9648438 C 15.774473 6.9638586 15.801194 6.9648438 15.828125 6.9648438 C 16.215938 6.9648438 16.561649 7.0895928 16.863281 7.3417969 C 17.100278 7.6134013 17.21875 7.9143353 17.21875 8.2441406 C 17.21875 8.6515472 17.100278 9.019804 16.863281 9.3496094 C 16.561649 9.6406141 16.18487 9.7871094 15.732422 9.7871094 C 15.366154 9.7871094 15.032101 9.6406141 14.730469 9.3496094 C 14.450382 9.019804 14.310547 8.6515472 14.310547 8.2441406 C 14.310547 7.9143353 14.450382 7.6134013 14.730469 7.3417969 C 15.013249 7.1053555 15.35165 6.9796213 15.748047 6.9648438 z M 17.154297 12.609375 L 17.154297 22.677734 C 17.154297 23.06574 17.272769 23.386468 17.509766 23.638672 C 17.746762 23.890876 18.026432 24.017578 18.349609 24.017578 L 18.962891 24.017578 L 18.962891 24.628906 L 12.46875 24.628906 L 12.46875 24.570312 L 12.46875 24.017578 L 13.113281 24.017578 C 13.522639 24.017578 13.868351 23.890876 14.148438 23.638672 C 14.428525 23.386468 14.568359 23.06574 14.568359 22.677734 L 14.568359 15.083984 C 14.568359 14.928782 14.504272 14.792183 14.375 14.675781 C 14.267273 14.539978 14.094418 14.472656 13.857422 14.472656 L 12.46875 14.472656 L 12.46875 14.005859 L 17.154297 12.609375 z "
       transform="scale(0.26458333)"
       inkscape:export-filename="/home/tgy-tutorials/.icons/thunar-icons/thunar-gpg-info.png"
       inkscape:export-xdpi="96"
       inkscape:export-ydpi="96" />
  </g>
</svg>
