<?xml version="1.0" encoding="UTF-8" standalone="no"?>
<!-- Created with Inkscape (http://www.inkscape.org/) -->

<svg
   width="32"
   height="32"
   viewBox="0 0 8.4666665 8.4666669"
   version="1.1"
   id="svg5"
   inkscape:version="1.1.2 (0a00cf5339, 2022-02-04)"
   sodipodi:docname="thunar-paste-to-postimage.svg"
   inkscape:export-filename="/home/tgy-tutorials/Scaricati/lm-21.3-xfce-dracula/thunar-icons/thunar-paste-to-postimage.png"
   inkscape:export-xdpi="96"
   inkscape:export-ydpi="96"
   xmlns:inkscape="http://www.inkscape.org/namespaces/inkscape"
   xmlns:sodipodi="http://sodipodi.sourceforge.net/DTD/sodipodi-0.dtd"
   xmlns="http://www.w3.org/2000/svg"
   xmlns:svg="http://www.w3.org/2000/svg">
  <sodipodi:namedview
     id="namedview7"
     pagecolor="#8c8c8c"
     bordercolor="#666666"
     borderopacity="1.0"
     inkscape:pageshadow="2"
     inkscape:pageopacity="0"
     inkscape:pagecheckerboard="0"
     inkscape:document-units="px"
     showgrid="false"
     units="px"
     inkscape:zoom="8.9255009"
     inkscape:cx="16.077529"
     inkscape:cy="15.853452"
     inkscape:window-width="1920"
     inkscape:window-height="1011"
     inkscape:window-x="0"
     inkscape:window-y="33"
     inkscape:window-maximized="1"
     inkscape:current-layer="layer1" />
  <defs
     id="defs2" />
  <g
     inkscape:label="Livello 1"
     inkscape:groupmode="layer"
     id="layer1">
    <g
       style="fill:#b5a5a7;fill-opacity:1"
       id="g997"
       transform="matrix(0.2652961,0,0,0.2652961,-0.01140401,-0.14405206)">
      <path
         d="m 28,8 v 16 c 0,1.104 -0.896,2 -2,2 H 5 c 0,1.104 0.896,2 2,2 h 21 c 1.104,0 2,-0.896 2,-2 V 10 C 30,8.896 29.104,8 28,8 Z M 27,23 V 7 C 27,5.896 26.104,5 25,5 H 4 C 2.896,5 2,5.896 2,7 v 16 c 0,1.104 0.896,2 2,2 h 21 c 1.104,0 2,-0.896 2,-2 z M 4,7 H 25 V 23 H 4 Z M 15.627,17.311 12.639,14.13 9.65,19.234 7.408,16.891 4.979,22.02 H 24.034 L 19.737,10.775 Z M 8,14 c 1.104,0 2,-0.896 2,-2 0,-1.104 -0.896,-2 -2,-2 -1.104,0 -2,0.896 -2,2 0,1.104 0.896,2 2,2 z"
         id="path988"
         style="fill:#b5a5a7;fill-opacity:1" />
    </g>
  </g>
</svg>
