<?xml version="1.0" encoding="UTF-8" standalone="no"?>
<!-- Created with Inkscape (http://www.inkscape.org/) -->

<svg
   width="32"
   height="32"
   viewBox="0 0 8.4666665 8.4666669"
   version="1.1"
   id="svg5"
   inkscape:version="1.1.2 (0a00cf5339, 2022-02-04)"
   sodipodi:docname="thunar-checksum.svg"
   inkscape:export-filename="/home/tgy-tutorials/.icons/thunar-icons/thunar-checksum.png"
   inkscape:export-xdpi="96"
   inkscape:export-ydpi="96"
   xmlns:inkscape="http://www.inkscape.org/namespaces/inkscape"
   xmlns:sodipodi="http://sodipodi.sourceforge.net/DTD/sodipodi-0.dtd"
   xmlns="http://www.w3.org/2000/svg"
   xmlns:svg="http://www.w3.org/2000/svg">
  <sodipodi:namedview
     id="namedview7"
     pagecolor="#8c8c8c"
     bordercolor="#666666"
     borderopacity="1.0"
     inkscape:pageshadow="2"
     inkscape:pageopacity="0"
     inkscape:pagecheckerboard="0"
     inkscape:document-units="px"
     showgrid="false"
     units="px"
     inkscape:zoom="4.5972026"
     inkscape:cx="-28.604352"
     inkscape:cy="24.036356"
     inkscape:window-width="1920"
     inkscape:window-height="1011"
     inkscape:window-x="0"
     inkscape:window-y="33"
     inkscape:window-maximized="1"
     inkscape:current-layer="layer1" />
  <defs
     id="defs2" />
  <g
     inkscape:label="Livello 1"
     inkscape:groupmode="layer"
     id="layer1">
    <path
       id="path872"
       style="opacity:1;fill:#b5a5a7;fill-opacity:1;stroke-width:0.403852"
       d="m 4.1585306,0.14102292 c -0.3276902,0 -0.6444856,0.108389 -1.2774414,0.325044 l -0.2309937,0.07906 C 1.4358636,0.96075892 0.82851466,1.1686899 0.67605566,1.3859069 0.52359084,1.6031229 0.52361015,2.2484269 0.52361042,3.5397779 v 0.636136 c 0,2.276885 1.71177818,3.381734 2.78587618,3.850923 0.2913592,0.127252 0.437392,0.191203 0.849044,0.191203 0.4116509,0 0.5571839,-0.06395 0.8485269,-0.191203 1.074098,-0.469189 2.7858765,-1.574038 2.7858765,-3.850923 v -0.636136 c 0,-1.291351 1.05e-5,-1.936655 -0.1524455,-2.153871 C 7.4880324,1.1686899 6.8812023,0.96075892 5.6669656,0.54513192 L 5.4354552,0.46606692 C 4.8024901,0.24941192 4.4862194,0.14102292 4.1585306,0.14102292 Z M 3.5621843,1.9548639 a 2.302685,2.302685 0 0 1 2.62723,1.139463 2.302685,2.302685 0 0 1 -0.5136637,2.817396 2.302685,2.302685 0 0 1 -2.8602905,0.137976 2.302685,2.302685 0 0 1 -0.7834149,-2.75435 l 2.1264854,0.884182 z" />
  </g>
</svg>
