<?xml version="1.0" encoding="UTF-8" standalone="no"?>
<!-- Uploaded to: SVG Repo, www.svgrepo.com, Generator: SVG Repo Mixer Tools -->

<svg
   width="800px"
   height="800px"
   viewBox="0 0 20 20"
   version="1.1"
   id="svg8"
   sodipodi:docname="media-audio-svgrepo-com.svg"
   inkscape:version="1.1.2 (0a00cf5339, 2022-02-04)"
   xmlns:inkscape="http://www.inkscape.org/namespaces/inkscape"
   xmlns:sodipodi="http://sodipodi.sourceforge.net/DTD/sodipodi-0.dtd"
   xmlns="http://www.w3.org/2000/svg"
   xmlns:svg="http://www.w3.org/2000/svg">
  <defs
     id="defs12" />
  <sodipodi:namedview
     id="namedview10"
     pagecolor="#ffffff"
     bordercolor="#666666"
     borderopacity="1.0"
     inkscape:pageshadow="2"
     inkscape:pageopacity="0.0"
     inkscape:pagecheckerboard="0"
     showgrid="false"
     inkscape:zoom="1.03875"
     inkscape:cx="400"
     inkscape:cy="400"
     inkscape:window-width="1920"
     inkscape:window-height="1011"
     inkscape:window-x="0"
     inkscape:window-y="33"
     inkscape:window-maximized="1"
     inkscape:current-layer="svg8" />
  <rect
     x="0"
     fill="none"
     width="20"
     height="20"
     id="rect2" />
  <g
     id="g6"
     style="fill:#b5a5a7;fill-opacity:1">
    <path
       d="M12 2l4 4v12H4V2h8zm0 4h3l-3-3v3zm1 7.26V8.09c0-.11-.04-.21-.12-.29-.07-.08-.16-.11-.27-.1 0 0-3.97.71-4.25.78C8.07 8.54 8 8.8 8 9v3.37c-.2-.09-.42-.07-.6-.07-.38 0-.7.13-.96.39-.26.27-.4.58-.4.96 0 .37.14.69.4.95.26.27.58.4.96.4.34 0 .7-.04.96-.26.26-.23.64-.65.64-1.12V10.3l3-.6V12c-.67-.2-1.17.04-1.44.31-.26.26-.39.58-.39.95 0 .38.13.69.39.96.27.26.71.39 1.08.39.38 0 .7-.13.96-.39.26-.27.4-.58.4-.96z"
       id="path4"
       style="fill:#b5a5a7;fill-opacity:1" />
  </g>
</svg>
