<?xml version="1.0" encoding="UTF-8" standalone="no"?>
<!-- Created with Inkscape (http://www.inkscape.org/) -->

<svg
   width="75"
   height="75"
   viewBox="0 0 19.84375 19.84375"
   version="1.1"
   id="svg5"
   inkscape:version="1.1.2 (0a00cf5339, 2022-02-04)"
   sodipodi:docname="ram.svg"
   inkscape:export-filename="/home/tgy-tutorials/.config/conky/Grumicela/res/ram.png"
   inkscape:export-xdpi="96"
   inkscape:export-ydpi="96"
   xmlns:inkscape="http://www.inkscape.org/namespaces/inkscape"
   xmlns:sodipodi="http://sodipodi.sourceforge.net/DTD/sodipodi-0.dtd"
   xmlns="http://www.w3.org/2000/svg"
   xmlns:svg="http://www.w3.org/2000/svg">
  <sodipodi:namedview
     id="namedview7"
     pagecolor="#6e6e6e"
     bordercolor="#666666"
     borderopacity="1.0"
     inkscape:pageshadow="2"
     inkscape:pageopacity="0"
     inkscape:pagecheckerboard="0"
     inkscape:document-units="mm"
     showgrid="false"
     units="px"
     width="150px"
     inkscape:zoom="4.3732466"
     inkscape:cx="-21.60866"
     inkscape:cy="42.417"
     inkscape:window-width="1920"
     inkscape:window-height="1011"
     inkscape:window-x="0"
     inkscape:window-y="33"
     inkscape:window-maximized="1"
     inkscape:current-layer="layer1" />
  <defs
     id="defs2">
    <style
       id="style882">.cls-1{fill:none;stroke:#020202;stroke-miterlimit:10;stroke-width:1.91px;}</style>
    <style
       id="style7831">.cls-1{fill:none;stroke:#020202;stroke-miterlimit:10;stroke-width:1.91px;}</style>
  </defs>
  <g
     inkscape:label="Livello 1"
     inkscape:groupmode="layer"
     id="layer1">
    <ellipse
       style="fill:#2aa4ff;stroke:#2aa4ff;stroke-width:0.704854;stroke-miterlimit:4;stroke-dasharray:none;stroke-opacity:1;fill-opacity:1"
       id="path1725"
       cx="9.921875"
       cy="9.6280804"
       rx="8.5144749"
       ry="8.2339678" />
    <rect
       style="fill:#003d6a;fill-opacity:1;stroke:none;stroke-width:0.309405;stroke-opacity:1"
       id="rect3939"
       width="11.043324"
       height="5.659842"
       x="8.2515602"
       y="13.780823"
       rx="1.6766218"
       ry="1.6766218" />
    <g
       style="fill:#ffffff;fill-opacity:1"
       id="g8056"
       transform="matrix(0,0.01778135,-0.01778135,0,14.473901,5.0760548)">
      <g
         id="g8037"
         style="fill:#ffffff;fill-opacity:1">
	<g
   id="g8035"
   style="fill:#ffffff;fill-opacity:1">
		<path
   d="m 384,149.4 h 64 V 42.7 C 448,22.5 432.3,0 409.7,0 H 320 c -11.8,0 -21.3,9.6 -21.4,21.3 0,0.2 -0.5,21.3 -21.3,21.3 C 263.5,42.6 256,39.2 256,21.3 256,9.6 246.5,0 234.7,0 H 192 v 512 h 42.8 c 11.8,0 21.3,-9.5 21.3,-21.3 0,-17.9 7.5,-21.3 21.3,-21.3 20.7,0 21.3,21.1 21.3,21.3 0,11.7 9.5,21.3 21.3,21.3 h 89.7 c 22.6,0 38.3,-22.5 38.3,-42.7 V 362.6 h -64 c -11.8,0 -21.3,-9.5 -21.3,-21.3 0,-11.7 9.5,-21.3 21.3,-21.3 h 64 V 277.3 H 341.3 c -11.8,0 -21.3,-9.6 -21.3,-21.3 0,-11.7 9.5,-21.3 21.3,-21.3 H 448 V 192 h -64 c -11.8,0 -21.3,-9.5 -21.3,-21.3 0,-11.8 9.5,-21.4 21.3,-21.3 z M 277.3,362.7 H 234.6 V 320 h 42.7 z m 0,-85.3 h -42.7 v -42.7 h 42.7 z m 0,-85.4 h -42.7 v -42.7 h 42.7 z"
   id="path8033"
   style="fill:#ffffff;fill-opacity:1" />

	</g>

</g>
      <g
         id="g8043"
         style="fill:#ffffff;fill-opacity:1">
	<g
   id="g8041"
   style="fill:#ffffff;fill-opacity:1">
		<path
   d="M 85.3,0 C 73.5,0 64,9.6 64,21.3 v 469.4 c 0,11.7 9.5,21.3 21.3,21.3 h 64 V 0 Z"
   id="path8039"
   style="fill:#ffffff;fill-opacity:1" />

	</g>

</g>
    </g>
  </g>
</svg>
