<?xml version="1.0" encoding="UTF-8" standalone="no"?>
<!-- Created with Inkscape (http://www.inkscape.org/) -->

<svg
   width="512"
   height="512"
   viewBox="0 0 135.46666 135.46667"
   version="1.1"
   id="svg8"
   inkscape:version="1.1.2 (0a00cf5339, 2022-02-04)"
   sodipodi:docname="desktop1.svg"
   inkscape:export-filename="/home/giagio/Icons/xfce4-terminal-root.png"
   inkscape:export-xdpi="96"
   inkscape:export-ydpi="96"
   xmlns:inkscape="http://www.inkscape.org/namespaces/inkscape"
   xmlns:sodipodi="http://sodipodi.sourceforge.net/DTD/sodipodi-0.dtd"
   xmlns="http://www.w3.org/2000/svg"
   xmlns:svg="http://www.w3.org/2000/svg"
   xmlns:rdf="http://www.w3.org/1999/02/22-rdf-syntax-ns#"
   xmlns:cc="http://creativecommons.org/ns#"
   xmlns:dc="http://purl.org/dc/elements/1.1/">
  <defs
     id="defs2" />
  <sodipodi:namedview
     id="base"
     pagecolor="#ffffff"
     bordercolor="#666666"
     borderopacity="1.0"
     inkscape:pageopacity="0.0"
     inkscape:pageshadow="2"
     inkscape:zoom="0.89380532"
     inkscape:cx="3.9158415"
     inkscape:cy="256.76732"
     inkscape:document-units="px"
     inkscape:current-layer="layer1"
     showgrid="false"
     units="px"
     inkscape:window-width="1920"
     inkscape:window-height="1011"
     inkscape:window-x="0"
     inkscape:window-y="33"
     inkscape:window-maximized="1"
     showguides="true"
     inkscape:guide-bbox="true"
     inkscape:pagecheckerboard="0">
    <sodipodi:guide
       position="0,7.9375002"
       orientation="0,1"
       id="guide7121"
       inkscape:label=""
       inkscape:color="rgb(0,0,255)"
       inkscape:locked="false" />
    <sodipodi:guide
       position="0,127.52917"
       orientation="0,1"
       id="guide7123"
       inkscape:label=""
       inkscape:color="rgb(0,0,255)"
       inkscape:locked="false" />
    <sodipodi:guide
       position="7.9374996,0"
       orientation="1,0"
       id="guide7125"
       inkscape:label=""
       inkscape:color="rgb(0,0,255)"
       inkscape:locked="false" />
    <sodipodi:guide
       position="127.52916,0"
       orientation="1,0"
       id="guide7127"
       inkscape:label=""
       inkscape:color="rgb(0,0,255)"
       inkscape:locked="false" />
  </sodipodi:namedview>
  <metadata
     id="metadata5">
    <rdf:RDF>
      <cc:Work
         rdf:about="">
        <dc:format>image/svg+xml</dc:format>
        <dc:type
           rdf:resource="http://purl.org/dc/dcmitype/StillImage" />
      </cc:Work>
    </rdf:RDF>
  </metadata>
  <g
     inkscape:label="Layer 1"
     inkscape:groupmode="layer"
     id="layer1"
     transform="translate(0,-161.53332)">
    <g
       id="g4131"
       transform="translate(1.4442264,155.22753)"
       style="opacity:0.41800005;fill:#000000;fill-opacity:1;stroke:#000000;stroke-opacity:1" />
    <g
       aria-label="1"
       transform="matrix(0.51157687,0,0,0.51157687,216.63713,125.37028)"
       style="font-style:normal;font-weight:normal;font-size:40px;line-height:1.25;font-family:sans-serif;letter-spacing:0px;word-spacing:0px;fill:#969696;fill-opacity:1;stroke:#373737;stroke-width:3.90948081;stroke-miterlimit:4;stroke-dasharray:none;stroke-opacity:1"
       id="flowRoot3797">
      <path
         inkscape:connector-curvature="0"
         d="m -295.16602,161.41858 -0.5625,0 -34.5,23.8125 0,-25.5 34.96875,-24.28125 28.125,0 0,135.28125 -28.03125,0 z"
         style="font-style:normal;font-variant:normal;font-weight:bold;font-stretch:normal;font-size:192px;font-family:'SFNS Display';-inkscape-font-specification:'SFNS Display Bold';fill:#969696;fill-opacity:1;stroke:#373737;stroke-width:3.90948081;stroke-miterlimit:4;stroke-dasharray:none;stroke-opacity:1"
         id="path3800" />
    </g>
    <circle
       style="fill:#555b69;fill-opacity:1;fill-rule:evenodd;stroke-width:0.293759"
       id="path36"
       cx="67.73333"
       cy="229.26665"
       r="51.59375" />
  </g>
</svg>
